[
  {
    "_id" : "58ae071422c7923748b680eb",
    "updatedAt" : "2017-02-22T22:11:11.000+0000",
    "createdAt" : "2017-02-22T21:48:04.406+0000",
    "attachment" : "http://res.cloudinary.com/db6q52gmz/image/upload/v1487799984/unfaurrv70da28xfdehv.jpg",
    "body" : "<div><!--block--><strong>Test</strong>&nbsp;<em>test</em>&nbsp;<del>test</del></div><ul><li><!--block-->test</li></ul><ol><li><!--block-->test</li><li><!--block-->test</li></ol>",
    "subject" : "Hello",
    "creatorFullname" : "sasha kolomiytsev",
    "creator" : "58ab6a076dc82033709a7e31",
    "recipients" : [
      "58ab6a456dc82033709a7e32",
      "58ae021c22c7923748b680e7",
      "58ae044822c7923748b680e8",
      "58ae05c122c7923748b680e9",
      "58ae064b22c7923748b680ea"
    ],
    "__v" : 0
  },
  {
    "_id" : "58ae072e22c7923748b680f1",
    "updatedAt" : "2017-02-22T22:11:11.000+0000",
    "createdAt" : "2017-02-22T21:48:30.149+0000",
    "attachment" : null,
    "body" : "<div><!--block-->test</div>",
    "subject" : "Yo",
    "creatorFullname" : "sasha kolomiytsev",
    "creator" : "58ab6a076dc82033709a7e31",
    "recipients" : [
      "58ae05c122c7923748b680e9"
    ],
    "__v" : 0
  },
  {
    "_id" : "58ae077022c7923748b680f3",
    "updatedAt" : "2017-02-22T21:49:36.678+0000",
    "createdAt" : "2017-02-22T21:49:36.678+0000",
    "attachment" : "http://res.cloudinary.com/db6q52gmz/image/upload/v1487800076/d75myfcigcau21oxykpq.jpg",
    "body" : "<div><!--block-->Fake text</div>",
    "subject" : "Test",
    "creatorFullname" : "alexander kolomiitsev",
    "creator" : "58ae021c22c7923748b680e7",
    "recipients" : [
      "58ab6a076dc82033709a7e31",
      "58ab6a456dc82033709a7e32",
      "58ae044822c7923748b680e8"
    ],
    "__v" : 0
  },
  {
    "_id" : "58ae078c22c7923748b680f7",
    "updatedAt" : "2017-02-22T21:50:04.267+0000",
    "createdAt" : "2017-02-22T21:50:04.267+0000",
    "attachment" : null,
    "body" : "<blockquote><!--block-->Without attachment</blockquote>",
    "subject" : "Testtt",
    "creatorFullname" : "alexander kolomiitsev",
    "creator" : "58ae021c22c7923748b680e7",
    "recipients" : [
      "58ae05c122c7923748b680e9",
      "58ae064b22c7923748b680ea"
    ],
    "__v" : 0
  },
  {
    "_id" : "58ae07d322c7923748b680fa",
    "updatedAt" : "2017-02-22T21:51:15.496+0000",
    "createdAt" : "2017-02-22T21:51:15.496+0000",
    "attachment" : "http://res.cloudinary.com/db6q52gmz/image/upload/v1487800175/qlgta2ms2bugeiegfkqb.jpg",
    "body" : "<div><!--block-->to alex and alex</div>",
    "subject" : "subjectctctct",
    "creatorFullname" : "alexander kolomiytsev",
    "creator" : "58ab6a456dc82033709a7e32",
    "recipients" : [
      "58ab6a076dc82033709a7e31",
      "58ae021c22c7923748b680e7"
    ],
    "__v" : 0
  },
  {
    "_id" : "58ae080b22c7923748b680fd",
    "updatedAt" : "2017-02-22T21:52:11.189+0000",
    "createdAt" : "2017-02-22T21:52:11.189+0000",
    "attachment" : "http://res.cloudinary.com/db6q52gmz/image/upload/v1487800231/z6ziuqlx7g7ig1fdiag7.jpg",
    "body" : "<div><!--block-->mongo express angular nodejs<br>with attachemnt<br><br><br></div>",
    "subject" : "MEAN",
    "creatorFullname" : "alexander kolomiytsev",
    "creator" : "58ab6a456dc82033709a7e32",
    "recipients" : [
      "58ae064b22c7923748b680ea"
    ],
    "__v" : 0
  },
  {
    "_id" : "58ae084a22c7923748b680ff",
    "updatedAt" : "2017-02-22T21:53:14.697+0000",
    "createdAt" : "2017-02-22T21:53:14.697+0000",
    "attachment" : "http://res.cloudinary.com/db6q52gmz/image/upload/v1487800294/ssr2efuihnxazyq8bfin.jpg",
    "body" : "<div><!--block--><strong>MAX</strong></div>",
    "subject" : "to max 5 recipients",
    "creatorFullname" : "alex yandex",
    "creator" : "58ae044822c7923748b680e8",
    "recipients" : [
      "58ab6a076dc82033709a7e31",
      "58ab6a456dc82033709a7e32",
      "58ae021c22c7923748b680e7",
      "58ae05c122c7923748b680e9",
      "58ae064b22c7923748b680ea"
    ],
    "__v" : 0
  },
  {
    "_id" : "58ae089a22c7923748b68105",
    "updatedAt" : "2017-02-22T21:54:34.094+0000",
    "createdAt" : "2017-02-22T21:54:34.094+0000",
    "attachment" : null,
    "body" : "<div><!--block-->Yo!!!<br><br><a href=\"http://google.com\">follow</a></div>",
    "subject" : "Special for John from Alex Yandex",
    "creatorFullname" : "alex yandex",
    "creator" : "58ae044822c7923748b680e8",
    "recipients" : [
      "58ae05c122c7923748b680e9"
    ],
    "__v" : 0
  },
  {
    "_id" : "58ae08be22c7923748b68107",
    "updatedAt" : "2017-02-22T21:55:10.249+0000",
    "createdAt" : "2017-02-22T21:55:10.249+0000",
    "attachment" : "http://res.cloudinary.com/db6q52gmz/image/upload/v1487800410/hktidgsbqcfmqlktm3jw.jpg",
    "body" : "<div><!--block-->test</div>",
    "subject" : "test",
    "creatorFullname" : "alex yandex",
    "creator" : "58ae044822c7923748b680e8",
    "recipients" : [
      "58ab6a076dc82033709a7e31"
    ],
    "__v" : 0
  },
  {
    "_id" : "58ae08f322c7923748b68109",
    "updatedAt" : "2017-02-22T21:56:03.133+0000",
    "createdAt" : "2017-02-22T21:56:03.133+0000",
    "attachment" : null,
    "body" : "<div><!--block-->tessttsts</div>",
    "subject" : "test",
    "creatorFullname" : "john doe",
    "creator" : "58ae05c122c7923748b680e9",
    "recipients" : [
      "58ae044822c7923748b680e8",
      "58ab6a456dc82033709a7e32"
    ],
    "__v" : 0
  },
  {
    "_id" : "58ae08fd22c7923748b6810c",
    "updatedAt" : "2017-02-22T21:56:13.705+0000",
    "createdAt" : "2017-02-22T21:56:13.705+0000",
    "attachment" : null,
    "body" : "<div><!--block-->test</div>",
    "subject" : "test",
    "creatorFullname" : "john doe",
    "creator" : "58ae05c122c7923748b680e9",
    "recipients" : [
      "58ab6a456dc82033709a7e32"
    ],
    "__v" : 0
  },
  {
    "_id" : "58ae092922c7923748b6810e",
    "updatedAt" : "2017-02-22T21:56:57.533+0000",
    "createdAt" : "2017-02-22T21:56:57.533+0000",
    "attachment" : "http://res.cloudinary.com/db6q52gmz/image/upload/v1487800517/yzybcgzfo8kcvpcl8tdi.jpg",
    "body" : "<div><!--block-->hello</div>",
    "subject" : "to johny from john",
    "creatorFullname" : "john doe",
    "creator" : "58ae05c122c7923748b680e9",
    "recipients" : [
      "58ae064b22c7923748b680ea"
    ],
    "__v" : 0
  },
  {
    "_id" : "58ae098f22c7923748b68110",
    "updatedAt" : "2017-02-22T21:58:39.983+0000",
    "createdAt" : "2017-02-22T21:58:39.983+0000",
    "attachment" : null,
    "body" : "<div><!--block-->hi</div>",
    "subject" : "to john from johny",
    "creatorFullname" : "johny doe",
    "creator" : "58ae064b22c7923748b680ea",
    "recipients" : [
      "58ae05c122c7923748b680e9"
    ],
    "__v" : 0
  },
  {
    "_id" : "58ae09a422c7923748b68112",
    "updatedAt" : "2017-02-22T21:59:00.028+0000",
    "createdAt" : "2017-02-22T21:59:00.028+0000",
    "attachment" : null,
    "body" : "<div><!--block-->preved</div>",
    "subject" : "Yo",
    "creatorFullname" : "johny doe",
    "creator" : "58ae064b22c7923748b680ea",
    "recipients" : [
      "58ab6a076dc82033709a7e31"
    ],
    "__v" : 0
  },
  {
    "_id" : "58ae09c922c7923748b68114",
    "updatedAt" : "2017-02-22T22:11:11.000+0000",
    "createdAt" : "2017-02-22T21:59:37.956+0000",
    "attachment" : null,
    "body" : "<div><!--block-->test1</div>",
    "subject" : "test1",
    "creatorFullname" : "sasha kolomiytsev",
    "creator" : "58ab6a076dc82033709a7e31",
    "recipients" : [
      "58ae021c22c7923748b680e7"
    ],
    "__v" : 0
  },
  {
    "_id" : "58ae09d722c7923748b68116",
    "updatedAt" : "2017-02-22T22:11:11.000+0000",
    "createdAt" : "2017-02-22T21:59:51.697+0000",
    "attachment" : null,
    "body" : "<div><!--block-->test2</div>",
    "subject" : "test2",
    "creatorFullname" : "sasha kolomiytsev",
    "creator" : "58ab6a076dc82033709a7e31",
    "recipients" : [
      "58ae021c22c7923748b680e7"
    ],
    "__v" : 0
  },
  {
    "_id" : "58ae09eb22c7923748b68118",
    "updatedAt" : "2017-02-22T22:11:11.000+0000",
    "createdAt" : "2017-02-22T22:00:11.429+0000",
    "attachment" : null,
    "body" : "<div><!--block-->test3</div>",
    "subject" : "test3",
    "creatorFullname" : "sasha kolomiytsev",
    "creator" : "58ab6a076dc82033709a7e31",
    "recipients" : [
      "58ae021c22c7923748b680e7",
      "58ab6a456dc82033709a7e32",
      "58ae044822c7923748b680e8",
      "58ae05c122c7923748b680e9",
      "58ae064b22c7923748b680ea"
    ],
    "__v" : 0
  },
  {
    "_id" : "58ae09fb22c7923748b6811e",
    "updatedAt" : "2017-02-22T22:11:11.000+0000",
    "createdAt" : "2017-02-22T22:00:27.532+0000",
    "attachment" : null,
    "body" : "<div><!--block-->test4</div>",
    "subject" : "test4",
    "creatorFullname" : "sasha kolomiytsev",
    "creator" : "58ab6a076dc82033709a7e31",
    "recipients" : [
      "58ab6a456dc82033709a7e32",
      "58ae05c122c7923748b680e9"
    ],
    "__v" : 0
  },
  {
    "_id" : "58ae0a0a22c7923748b68121",
    "updatedAt" : "2017-02-22T22:11:11.000+0000",
    "createdAt" : "2017-02-22T22:00:42.671+0000",
    "attachment" : "http://res.cloudinary.com/db6q52gmz/image/upload/v1487800742/edb0fgm4pomghyhcng6g.jpg",
    "body" : "<div><!--block-->test5</div>",
    "subject" : "test5",
    "creatorFullname" : "sasha kolomiytsev",
    "creator" : "58ab6a076dc82033709a7e31",
    "recipients" : [
      "58ae05c122c7923748b680e9",
      "58ae064b22c7923748b680ea"
    ],
    "__v" : 0
  },
  {
    "_id" : "58ae0a2c22c7923748b68124",
    "updatedAt" : "2017-02-22T22:11:11.000+0000",
    "createdAt" : "2017-02-22T22:01:16.252+0000",
    "attachment" : null,
    "body" : "<div><!--block-->test6</div>",
    "subject" : "test6",
    "creatorFullname" : "sasha kolomiytsev",
    "creator" : "58ab6a076dc82033709a7e31",
    "recipients" : [
      "58ab6a456dc82033709a7e32",
      "58ae044822c7923748b680e8"
    ],
    "__v" : 0
  },
  {
    "_id" : "58ae0a3a22c7923748b68127",
    "updatedAt" : "2017-02-22T22:11:11.000+0000",
    "createdAt" : "2017-02-22T22:01:30.307+0000",
    "attachment" : null,
    "body" : "<div><!--block-->test7</div>",
    "subject" : "test7",
    "creatorFullname" : "sasha kolomiytsev",
    "creator" : "58ab6a076dc82033709a7e31",
    "recipients" : [
      "58ab6a456dc82033709a7e32"
    ],
    "__v" : 0
  },
  {
    "_id" : "58ae0a4422c7923748b68129",
    "updatedAt" : "2017-02-22T22:11:11.000+0000",
    "createdAt" : "2017-02-22T22:01:40.666+0000",
    "attachment" : null,
    "body" : "<div><!--block-->test9</div>",
    "subject" : "test8",
    "creatorFullname" : "sasha kolomiytsev",
    "creator" : "58ab6a076dc82033709a7e31",
    "recipients" : [
      "58ab6a456dc82033709a7e32"
    ],
    "__v" : 0
  },
  {
    "_id" : "58ae0a5022c7923748b6812b",
    "updatedAt" : "2017-02-22T22:11:11.000+0000",
    "createdAt" : "2017-02-22T22:01:52.714+0000",
    "attachment" : null,
    "body" : "<div><!--block-->test9</div>",
    "subject" : "test9",
    "creatorFullname" : "sasha kolomiytsev",
    "creator" : "58ab6a076dc82033709a7e31",
    "recipients" : [
      "58ab6a456dc82033709a7e32"
    ],
    "__v" : 0
  },
  {
    "_id" : "58ae0a6b22c7923748b6812d",
    "updatedAt" : "2017-02-22T22:11:11.000+0000",
    "createdAt" : "2017-02-22T22:02:19.069+0000",
    "attachment" : null,
    "body" : "<div><!--block-->test10</div>",
    "subject" : "test10",
    "creatorFullname" : "sasha kolomiytsev",
    "creator" : "58ab6a076dc82033709a7e31",
    "recipients" : [
      "58ae044822c7923748b680e8"
    ],
    "__v" : 0
  },
  {
    "_id" : "58ae0b4f22c7923748b6812f",
    "updatedAt" : "2017-02-22T22:11:11.000+0000",
    "createdAt" : "2017-02-22T22:06:07.419+0000",
    "attachment" : null,
    "body" : "<div><!--block-->test11</div>",
    "subject" : "test11",
    "creatorFullname" : "sasha kolomiytsev",
    "creator" : "58ab6a076dc82033709a7e31",
    "recipients" : [
      "58ab6a456dc82033709a7e32"
    ],
    "__v" : 0
  },
  {
    "_id" : "58ae0b9b22c7923748b68131",
    "updatedAt" : "2017-02-22T22:07:24.007+0000",
    "createdAt" : "2017-02-22T22:07:24.007+0000",
    "attachment" : null,
    "body" : "<div><!--block-->1test1</div>",
    "subject" : "1test1",
    "creatorFullname" : "alexander kolomiitsev",
    "creator" : "58ae021c22c7923748b680e7",
    "recipients" : [
      "58ab6a076dc82033709a7e31"
    ],
    "__v" : 0
  },
  {
    "_id" : "58ae0ba822c7923748b68133",
    "updatedAt" : "2017-02-22T22:07:36.690+0000",
    "createdAt" : "2017-02-22T22:07:36.690+0000",
    "attachment" : null,
    "body" : "<div><!--block-->1test2</div>",
    "subject" : "1test2",
    "creatorFullname" : "alexander kolomiitsev",
    "creator" : "58ae021c22c7923748b680e7",
    "recipients" : [
      "58ab6a456dc82033709a7e32"
    ],
    "__v" : 0
  },
  {
    "_id" : "58ae0bb422c7923748b68135",
    "updatedAt" : "2017-02-22T22:07:48.417+0000",
    "createdAt" : "2017-02-22T22:07:48.417+0000",
    "attachment" : null,
    "body" : "<div><!--block-->1test3</div>",
    "subject" : "1test3",
    "creatorFullname" : "alexander kolomiitsev",
    "creator" : "58ae021c22c7923748b680e7",
    "recipients" : [
      "58ab6a076dc82033709a7e31"
    ],
    "__v" : 0
  },
  {
    "_id" : "58ae0bc022c7923748b68137",
    "updatedAt" : "2017-02-22T22:08:00.495+0000",
    "createdAt" : "2017-02-22T22:08:00.495+0000",
    "attachment" : null,
    "body" : "<div><!--block-->1test4</div>",
    "subject" : "1test4",
    "creatorFullname" : "alexander kolomiitsev",
    "creator" : "58ae021c22c7923748b680e7",
    "recipients" : [
      "58ab6a076dc82033709a7e31"
    ],
    "__v" : 0
  },
  {
    "_id" : "58ae0bcc22c7923748b68139",
    "updatedAt" : "2017-02-22T22:08:12.193+0000",
    "createdAt" : "2017-02-22T22:08:12.193+0000",
    "attachment" : null,
    "body" : "<div><!--block-->1test5</div>",
    "subject" : "1test5",
    "creatorFullname" : "alexander kolomiitsev",
    "creator" : "58ae021c22c7923748b680e7",
    "recipients" : [
      "58ae044822c7923748b680e8"
    ],
    "__v" : 0
  },
  {
    "_id" : "58ae0bda22c7923748b6813b",
    "updatedAt" : "2017-02-22T22:08:26.225+0000",
    "createdAt" : "2017-02-22T22:08:26.225+0000",
    "attachment" : null,
    "body" : "<div><!--block-->1test6</div>",
    "subject" : "1test6",
    "creatorFullname" : "alexander kolomiitsev",
    "creator" : "58ae021c22c7923748b680e7",
    "recipients" : [
      "58ab6a076dc82033709a7e31"
    ],
    "__v" : 0
  },
  {
    "_id" : "58ae0bf522c7923748b6813d",
    "updatedAt" : "2017-02-22T22:08:53.295+0000",
    "createdAt" : "2017-02-22T22:08:53.295+0000",
    "attachment" : null,
    "body" : "<div><!--block-->1test7</div>",
    "subject" : "1test7",
    "creatorFullname" : "alexander kolomiitsev",
    "creator" : "58ae021c22c7923748b680e7",
    "recipients" : [
      "58ae05c122c7923748b680e9",
      "58ae064b22c7923748b680ea",
      "58ab6a076dc82033709a7e31",
      "58ab6a456dc82033709a7e32",
      "58ae044822c7923748b680e8"
    ],
    "__v" : 0
  },
  {
    "_id" : "58ae0c0c22c7923748b68143",
    "updatedAt" : "2017-02-22T22:09:16.708+0000",
    "createdAt" : "2017-02-22T22:09:16.708+0000",
    "attachment" : null,
    "body" : "<div><!--block-->1test8</div>",
    "subject" : "1test8",
    "creatorFullname" : "alexander kolomiitsev",
    "creator" : "58ae021c22c7923748b680e7",
    "recipients" : [
      "58ae044822c7923748b680e8",
      "58ab6a456dc82033709a7e32",
      "58ab6a076dc82033709a7e31",
      "58ae05c122c7923748b680e9",
      "58ae064b22c7923748b680ea"
    ],
    "__v" : 0
  },
  {
    "_id" : "58ae0c2322c7923748b68149",
    "updatedAt" : "2017-02-22T22:09:39.222+0000",
    "createdAt" : "2017-02-22T22:09:39.222+0000",
    "attachment" : null,
    "body" : "<div><!--block-->1test9</div>",
    "subject" : "1test9",
    "creatorFullname" : "alexander kolomiitsev",
    "creator" : "58ae021c22c7923748b680e7",
    "recipients" : [
      "58ab6a076dc82033709a7e31",
      "58ab6a456dc82033709a7e32",
      "58ae044822c7923748b680e8",
      "58ae05c122c7923748b680e9",
      "58ae064b22c7923748b680ea"
    ],
    "__v" : 0
  },
  {
    "_id" : "58ae0c3922c7923748b6814f",
    "updatedAt" : "2017-02-22T22:10:01.786+0000",
    "createdAt" : "2017-02-22T22:10:01.786+0000",
    "attachment" : null,
    "body" : "<div><!--block-->1test10</div>",
    "subject" : "1test10",
    "creatorFullname" : "alexander kolomiitsev",
    "creator" : "58ae021c22c7923748b680e7",
    "recipients" : [
      "58ab6a076dc82033709a7e31",
      "58ab6a456dc82033709a7e32",
      "58ae044822c7923748b680e8",
      "58ae05c122c7923748b680e9",
      "58ae064b22c7923748b680ea"
    ],
    "__v" : 0
  },
  {
    "_id" : "58ae0c5422c7923748b68155",
    "updatedAt" : "2017-02-22T22:10:28.307+0000",
    "createdAt" : "2017-02-22T22:10:28.307+0000",
    "attachment" : null,
    "body" : "<div><!--block-->1test11</div>",
    "subject" : "1test11",
    "creatorFullname" : "alexander kolomiitsev",
    "creator" : "58ae021c22c7923748b680e7",
    "recipients" : [
      "58ab6a076dc82033709a7e31",
      "58ab6a456dc82033709a7e32",
      "58ae044822c7923748b680e8",
      "58ae05c122c7923748b680e9",
      "58ae064b22c7923748b680ea"
    ],
    "__v" : 0
  },
  {
    "_id" : "58ae0ce822c7923748b6815b",
    "updatedAt" : "2017-02-22T22:12:56.414+0000",
    "createdAt" : "2017-02-22T22:12:56.414+0000",
    "attachment" : null,
    "body" : "<div><!--block-->2test1</div>",
    "subject" : "2test1",
    "creatorFullname" : "sasha kolomiytsev",
    "creator" : "58ab6a076dc82033709a7e31",
    "recipients" : [
      "58ab6a456dc82033709a7e32",
      "58ae021c22c7923748b680e7",
      "58ae044822c7923748b680e8",
      "58ae05c122c7923748b680e9",
      "58ae064b22c7923748b680ea"
    ],
    "__v" : 0
  },
  {
    "_id" : "58ae0d0222c7923748b68161",
    "updatedAt" : "2017-02-22T22:13:22.133+0000",
    "createdAt" : "2017-02-22T22:13:22.133+0000",
    "attachment" : null,
    "body" : "<div><!--block-->2test2</div>",
    "subject" : "2test2",
    "creatorFullname" : "sasha kolomiytsev",
    "creator" : "58ab6a076dc82033709a7e31",
    "recipients" : [
      "58ab6a456dc82033709a7e32",
      "58ae021c22c7923748b680e7",
      "58ae044822c7923748b680e8",
      "58ae05c122c7923748b680e9"
    ],
    "__v" : 0
  },
  {
    "_id" : "58ae0d3022c7923748b68166",
    "updatedAt" : "2017-02-22T22:14:08.364+0000",
    "createdAt" : "2017-02-22T22:14:08.364+0000",
    "attachment" : null,
    "body" : "<div><!--block-->2test3</div>",
    "subject" : "2test3",
    "creatorFullname" : "sasha kolomiytsev",
    "creator" : "58ab6a076dc82033709a7e31",
    "recipients" : [
      "58ab6a456dc82033709a7e32",
      "58ae021c22c7923748b680e7",
      "58ae044822c7923748b680e8",
      "58ae05c122c7923748b680e9",
      "58ae064b22c7923748b680ea"
    ],
    "__v" : 0
  },
  {
    "_id" : "58ae0d4522c7923748b6816c",
    "updatedAt" : "2017-02-22T22:14:29.800+0000",
    "createdAt" : "2017-02-22T22:14:29.800+0000",
    "attachment" : null,
    "body" : "<div><!--block-->2test4</div>",
    "subject" : "2test4",
    "creatorFullname" : "sasha kolomiytsev",
    "creator" : "58ab6a076dc82033709a7e31",
    "recipients" : [
      "58ab6a456dc82033709a7e32",
      "58ae021c22c7923748b680e7",
      "58ae044822c7923748b680e8",
      "58ae05c122c7923748b680e9",
      "58ae064b22c7923748b680ea"
    ],
    "__v" : 0
  },
  {
    "_id" : "58ae0d5822c7923748b68172",
    "updatedAt" : "2017-02-22T22:14:48.218+0000",
    "createdAt" : "2017-02-22T22:14:48.218+0000",
    "attachment" : null,
    "body" : "<div><!--block-->2test5</div>",
    "subject" : "2test5",
    "creatorFullname" : "sasha kolomiytsev",
    "creator" : "58ab6a076dc82033709a7e31",
    "recipients" : [
      "58ab6a456dc82033709a7e32",
      "58ae021c22c7923748b680e7",
      "58ae044822c7923748b680e8",
      "58ae05c122c7923748b680e9",
      "58ae064b22c7923748b680ea"
    ],
    "__v" : 0
  },
  {
    "_id" : "58ae0d6a22c7923748b68178",
    "updatedAt" : "2017-02-22T22:15:06.862+0000",
    "createdAt" : "2017-02-22T22:15:06.862+0000",
    "attachment" : null,
    "body" : "<div><!--block-->2test6</div>",
    "subject" : "2test6",
    "creatorFullname" : "sasha kolomiytsev",
    "creator" : "58ab6a076dc82033709a7e31",
    "recipients" : [
      "58ab6a456dc82033709a7e32",
      "58ae021c22c7923748b680e7",
      "58ae044822c7923748b680e8",
      "58ae05c122c7923748b680e9",
      "58ae064b22c7923748b680ea"
    ],
    "__v" : 0
  },
  {
    "_id" : "58ae0d7f22c7923748b6817e",
    "updatedAt" : "2017-02-22T22:15:27.849+0000",
    "createdAt" : "2017-02-22T22:15:27.849+0000",
    "attachment" : null,
    "body" : "<div><!--block-->2test7</div>",
    "subject" : "2test7",
    "creatorFullname" : "sasha kolomiytsev",
    "creator" : "58ab6a076dc82033709a7e31",
    "recipients" : [
      "58ab6a456dc82033709a7e32",
      "58ae021c22c7923748b680e7",
      "58ae044822c7923748b680e8",
      "58ae05c122c7923748b680e9",
      "58ae064b22c7923748b680ea"
    ],
    "__v" : 0
  },
  {
    "_id" : "58ae0d9422c7923748b68184",
    "updatedAt" : "2017-02-22T22:15:48.615+0000",
    "createdAt" : "2017-02-22T22:15:48.615+0000",
    "attachment" : null,
    "body" : "<div><!--block-->2test8</div>",
    "subject" : "2test8",
    "creatorFullname" : "sasha kolomiytsev",
    "creator" : "58ab6a076dc82033709a7e31",
    "recipients" : [
      "58ab6a456dc82033709a7e32",
      "58ae021c22c7923748b680e7",
      "58ae044822c7923748b680e8",
      "58ae05c122c7923748b680e9",
      "58ae064b22c7923748b680ea"
    ],
    "__v" : 0
  },
  {
    "_id" : "58ae0da622c7923748b6818a",
    "updatedAt" : "2017-02-22T22:16:06.720+0000",
    "createdAt" : "2017-02-22T22:16:06.720+0000",
    "attachment" : null,
    "body" : "<div><!--block-->2test9</div>",
    "subject" : "2test9",
    "creatorFullname" : "sasha kolomiytsev",
    "creator" : "58ab6a076dc82033709a7e31",
    "recipients" : [
      "58ab6a456dc82033709a7e32",
      "58ae021c22c7923748b680e7",
      "58ae044822c7923748b680e8",
      "58ae05c122c7923748b680e9",
      "58ae064b22c7923748b680ea"
    ],
    "__v" : 0
  },
  {
    "_id" : "58ae0dba22c7923748b68190",
    "updatedAt" : "2017-02-22T22:16:26.662+0000",
    "createdAt" : "2017-02-22T22:16:26.662+0000",
    "attachment" : null,
    "body" : "<div><!--block-->2test10</div>",
    "subject" : "2test10",
    "creatorFullname" : "sasha kolomiytsev",
    "creator" : "58ab6a076dc82033709a7e31",
    "recipients" : [
      "58ab6a456dc82033709a7e32",
      "58ae021c22c7923748b680e7",
      "58ae044822c7923748b680e8",
      "58ae05c122c7923748b680e9",
      "58ae064b22c7923748b680ea"
    ],
    "__v" : 0
  },
  {
    "_id" : "58ae0e3122c7923748b68196",
    "updatedAt" : "2017-02-22T22:18:25.438+0000",
    "createdAt" : "2017-02-22T22:18:25.438+0000",
    "attachment" : null,
    "body" : "<div><!--block-->3test1</div>",
    "subject" : "3test1",
    "creatorFullname" : "alex yandex",
    "creator" : "58ae044822c7923748b680e8",
    "recipients" : [
      "58ab6a076dc82033709a7e31",
      "58ab6a456dc82033709a7e32",
      "58ae021c22c7923748b680e7",
      "58ae05c122c7923748b680e9",
      "58ae064b22c7923748b680ea"
    ],
    "__v" : 0
  },
  {
    "_id" : "58ae0e4222c7923748b6819c",
    "updatedAt" : "2017-02-22T22:18:42.260+0000",
    "createdAt" : "2017-02-22T22:18:42.260+0000",
    "attachment" : null,
    "body" : "<div><!--block-->3test2</div>",
    "subject" : "3test2",
    "creatorFullname" : "alex yandex",
    "creator" : "58ae044822c7923748b680e8",
    "recipients" : [
      "58ab6a076dc82033709a7e31",
      "58ab6a456dc82033709a7e32",
      "58ae021c22c7923748b680e7",
      "58ae05c122c7923748b680e9",
      "58ae064b22c7923748b680ea"
    ],
    "__v" : 0
  },
  {
    "_id" : "58ae0e5922c7923748b681a2",
    "updatedAt" : "2017-02-22T22:19:05.263+0000",
    "createdAt" : "2017-02-22T22:19:05.263+0000",
    "attachment" : null,
    "body" : "<div><!--block-->3test3</div>",
    "subject" : "3test3",
    "creatorFullname" : "alex yandex",
    "creator" : "58ae044822c7923748b680e8",
    "recipients" : [
      "58ab6a076dc82033709a7e31",
      "58ab6a456dc82033709a7e32",
      "58ae021c22c7923748b680e7",
      "58ae05c122c7923748b680e9",
      "58ae064b22c7923748b680ea"
    ],
    "__v" : 0
  },
  {
    "_id" : "58ae0e6e22c7923748b681a8",
    "updatedAt" : "2017-02-22T22:19:26.699+0000",
    "createdAt" : "2017-02-22T22:19:26.699+0000",
    "attachment" : null,
    "body" : "<div><!--block-->3test4</div>",
    "subject" : "3test4",
    "creatorFullname" : "alex yandex",
    "creator" : "58ae044822c7923748b680e8",
    "recipients" : [
      "58ab6a076dc82033709a7e31",
      "58ab6a456dc82033709a7e32",
      "58ae021c22c7923748b680e7",
      "58ae05c122c7923748b680e9",
      "58ae064b22c7923748b680ea"
    ],
    "__v" : 0
  },
  {
    "_id" : "58ae0e8622c7923748b681ae",
    "updatedAt" : "2017-02-22T22:19:50.340+0000",
    "createdAt" : "2017-02-22T22:19:50.340+0000",
    "attachment" : null,
    "body" : "<div><!--block-->3test5</div>",
    "subject" : "3test5",
    "creatorFullname" : "alex yandex",
    "creator" : "58ae044822c7923748b680e8",
    "recipients" : [
      "58ab6a076dc82033709a7e31",
      "58ab6a456dc82033709a7e32",
      "58ae021c22c7923748b680e7",
      "58ae05c122c7923748b680e9",
      "58ae064b22c7923748b680ea"
    ],
    "__v" : 0
  },
  {
    "_id" : "58ae0e9922c7923748b681b4",
    "updatedAt" : "2017-02-22T22:20:09.136+0000",
    "createdAt" : "2017-02-22T22:20:09.136+0000",
    "attachment" : null,
    "body" : "<div><!--block-->3test6</div>",
    "subject" : "3test6",
    "creatorFullname" : "alex yandex",
    "creator" : "58ae044822c7923748b680e8",
    "recipients" : [
      "58ab6a076dc82033709a7e31",
      "58ab6a456dc82033709a7e32",
      "58ae021c22c7923748b680e7",
      "58ae05c122c7923748b680e9",
      "58ae064b22c7923748b680ea"
    ],
    "__v" : 0
  },
  {
    "_id" : "58ae0eaa22c7923748b681ba",
    "updatedAt" : "2017-02-22T22:20:26.173+0000",
    "createdAt" : "2017-02-22T22:20:26.173+0000",
    "attachment" : null,
    "body" : "<div><!--block-->3test7</div>",
    "subject" : "3test7",
    "creatorFullname" : "alex yandex",
    "creator" : "58ae044822c7923748b680e8",
    "recipients" : [
      "58ab6a076dc82033709a7e31",
      "58ab6a456dc82033709a7e32",
      "58ae021c22c7923748b680e7",
      "58ae05c122c7923748b680e9",
      "58ae064b22c7923748b680ea"
    ],
    "__v" : 0
  },
  {
    "_id" : "58ae0eba22c7923748b681c0",
    "updatedAt" : "2017-02-22T22:20:42.690+0000",
    "createdAt" : "2017-02-22T22:20:42.690+0000",
    "attachment" : null,
    "body" : "<div><!--block-->3test8</div>",
    "subject" : "3test8",
    "creatorFullname" : "alex yandex",
    "creator" : "58ae044822c7923748b680e8",
    "recipients" : [
      "58ab6a076dc82033709a7e31",
      "58ab6a456dc82033709a7e32",
      "58ae021c22c7923748b680e7",
      "58ae05c122c7923748b680e9",
      "58ae064b22c7923748b680ea"
    ],
    "__v" : 0
  },
  {
    "_id" : "58ae0ecc22c7923748b681c6",
    "updatedAt" : "2017-02-22T22:21:00.102+0000",
    "createdAt" : "2017-02-22T22:21:00.102+0000",
    "attachment" : null,
    "body" : "<div><!--block-->3test9</div>",
    "subject" : "3test9",
    "creatorFullname" : "alex yandex",
    "creator" : "58ae044822c7923748b680e8",
    "recipients" : [
      "58ab6a076dc82033709a7e31",
      "58ab6a456dc82033709a7e32",
      "58ae021c22c7923748b680e7",
      "58ae05c122c7923748b680e9",
      "58ae064b22c7923748b680ea"
    ],
    "__v" : 0
  },
  {
    "_id" : "58ae0ede22c7923748b681cc",
    "updatedAt" : "2017-02-22T22:21:18.110+0000",
    "createdAt" : "2017-02-22T22:21:18.110+0000",
    "attachment" : null,
    "body" : "<div><!--block-->3test10</div>",
    "subject" : "3test10",
    "creatorFullname" : "alex yandex",
    "creator" : "58ae044822c7923748b680e8",
    "recipients" : [
      "58ab6a076dc82033709a7e31",
      "58ab6a456dc82033709a7e32",
      "58ae021c22c7923748b680e7",
      "58ae05c122c7923748b680e9",
      "58ae064b22c7923748b680ea"
    ],
    "__v" : 0
  }
]
